{
  "name": "JobRole",
  "options": {
    "idInjection": false,
    "mysql": {
      "schema": "devScora",
      "table": "JOB_ROLE"
    },
    "relations": {
      "jobRoleIbfk1rel": {
        "model": "Company",
        "type": "belongsTo",
        "foreignKey": "companyId"
      },
      "jobRoleLookupValue": {
        "model": "LookupValue",
        "type": "belongsTo",
        "foreignKey": "jobRoleTypeValueId"
      }
    }
  },
  "properties": {
    "jobRoleId": {
      "type": "Number",
      "id": true,
      "length": null,
      "precision": 10,
      "scale": 0,
      "mysql": {
        "columnName": "job_role_id",
        "dataType": "int",
        "dataLength": null,
        "dataPrecision": 10,
        "dataScale": 0,
        "nullable": "N"
      }
    },
    "companyId": {
      "type": "Number",
      "required": true,
      "length": null,
      "precision": 10,
      "scale": 0,
      "mysql": {
        "columnName": "company_id",
        "dataType": "int",
        "dataLength": null,
        "dataPrecision": 10,
        "dataScale": 0,
        "nullable": "N"
      }
    },
    "jobRoleName": {
      "type": "String",
      "required": false,
      "length": 50,
      "precision": null,
      "scale": null,
      "mysql": {
        "columnName": "job_role_name",
        "dataType": "varchar",
        "dataLength": 50,
        "dataPrecision": null,
        "dataScale": null,
        "nullable": "Y"
      }
    },
    "jobRoleTypeValueId": {
      "type": "Number",
      "required": false,
      "length": null,
      "precision": 10,
      "scale": 0,
      "mysql": {
        "columnName": "job_role_type_value_id",
        "dataType": "int",
        "dataLength": null,
        "dataPrecision": 10,
        "dataScale": 0,
        "nullable": "Y"
      }
    },
    "skillSet": {
      "type": "String",
      "required": false,
      "length": 2000,
      "precision": null,
      "scale": null,
      "mysql": {
        "columnName": "skill_set",
        "dataType": "varchar",
        "dataLength": 2000,
        "dataPrecision": null,
        "dataScale": null,
        "nullable": "Y"
      }
    },
    "summary": {
      "type": "String",
      "required": false,
      "length": 2000,
      "precision": null,
      "scale": null,
      "mysql": {
        "columnName": "summary",
        "dataType": "varchar",
        "dataLength": 2000,
        "dataPrecision": null,
        "dataScale": null,
        "nullable": "Y"
      }
    },
    "createDatetime": {
      "type": "Date",
      "required": true,
      "length": null,
      "precision": null,
      "scale": null,
      "mysql": {
        "columnName": "create_datetime",
        "dataType": "datetime",
        "dataLength": null,
        "dataPrecision": null,
        "dataScale": null,
        "nullable": "N"
      }
    },
    "updateDatetime": {
      "type": "Date",
      "required": true,
      "length": null,
      "precision": null,
      "scale": null,
      "mysql": {
        "columnName": "update_datetime",
        "dataType": "datetime",
        "dataLength": null,
        "dataPrecision": null,
        "dataScale": null,
        "nullable": "N"
      }
    },
    "createUserId": {
      "type": "Number",
      "required": true,
      "length": null,
      "precision": 10,
      "scale": 0,
      "mysql": {
        "columnName": "create_user_id",
        "dataType": "int",
        "dataLength": null,
        "dataPrecision": 10,
        "dataScale": 0,
        "nullable": "N"
      }
    },
    "updateUserId": {
      "type": "Number",
      "required": true,
      "length": null,
      "precision": 10,
      "scale": 0,
      "mysql": {
        "columnName": "update_user_id",
        "dataType": "int",
        "dataLength": null,
        "dataPrecision": 10,
        "dataScale": 0,
        "nullable": "N"
      }
    }
  },
  "validations": [],
  "relations": {},
  "acls": [],
  "methods": {}
}
