{
  "name": "MessageHdr",
  "options": {
    "idInjection": false,
    "mysql": {
      "schema": "devScora",
      "table": "MESSAGE_HDR"
    },
    "relations": {}
  },
  "properties": {
    "messageHdrId": {
      "type": "Number",
      "id": 1,
      "length": null,
      "precision": 10,
      "scale": 0,
      "mysql": {
        "columnName": "message_hdr_id",
        "dataType": "int",
        "dataLength": null,
        "dataPrecision": 10,
        "dataScale": 0,
        "nullable": "N"
      }
    },
    "messageCategory": {
      "type": "Number",
      "required": true,
      "length": null,
      "precision": 2,
      "scale": 0,
      "mysql": {
        "columnName": "message_category",
        "dataType": "int",
        "dataLength": null,
        "dataPrecision": 2,
        "dataScale": 0,
        "nullable": "N"
      }
    },
    "description": {
      "type": "String",
      "required": false,
      "length": 100,
      "precision": null,
      "scale": null,
      "mysql": {
        "columnName": "description",
        "dataType": "varchar",
        "dataLength": 100,
        "dataPrecision": null,
        "dataScale": null,
        "nullable": "Y"
      }
    },
    "messageId": {
      "type": "Number",
      "length": null,
      "required": true,
      "precision": 5,
      "scale": 0,
      "mysql": {
        "columnName": "message_id",
        "dataType": "int",
        "dataLength": null,
        "dataPrecision": 5,
        "dataScale": 0,
        "nullable": "N"
      }
    },
    "displayType": {
      "type": "Number",
      "length": null,
      "required": true,
      "precision": 2,
      "scale": 0,
      "mysql": {
        "columnName": "display_type",
        "dataType": "int",
        "dataLength": null,
        "dataPrecision": 2,
        "dataScale": 0,
        "nullable": "N"
      }
    },
    "messageType": {
      "type": "String",
      "required": false,
      "length": 1,
      "precision": null,
      "scale": null,
      "mysql": {
        "columnName": "description",
        "dataType": "varchar",
        "dataLength": 1,
        "dataPrecision": null,
        "dataScale": null,
        "nullable": "Y"
      }
    }
  },
  "validations": [],
  "relations": {},
  "acls": [],
  "methods": {}
}
