{
  "name": "ProgramContact",
  "options": {
    "idInjection": false,
    "mysql": {
      "schema": "devScora",
      "table": "PROGRAM_CONTACT"
    },
    "relations": {
      "programContactIbfk1rel": {
        "model": "Program",
        "type": "belongsTo",
        "foreignKey": "programId"
      },
      "programContact": {
        "model": "Contact",
        "type": "belongsTo",
        "foreignKey": "contactId"
      },
      "programContactIbfk3rel": {
        "model": "Campus",
        "type": "belongsTo",
        "foreignKey": "campusId"
      }
    }
  },
  "properties": {
    "programId": {
      "type": "Number",
      "id": 1,
      "required": true,
      "length": null,
      "precision": 10,
      "scale": 0,
      "mysql": {
        "columnName": "program_id",
        "dataType": "int",
        "dataLength": null,
        "dataPrecision": 10,
        "dataScale": 0,
        "nullable": "N"
      }
    },
    "contactId": {
      "type": "Number",
      "id": 2,
      "required": true,
      "length": null,
      "precision": 10,
      "scale": 0,
      "mysql": {
        "columnName": "contact_id",
        "dataType": "int",
        "dataLength": null,
        "dataPrecision": 10,
        "dataScale": 0,
        "nullable": "N"
      }
    },
    "primaryInd": {
      "type": "String",
      "required": false,
      "length": 1,
      "precision": null,
      "scale": null,
      "mysql": {
        "columnName": "primary_ind",
        "dataType": "varchar",
        "dataLength": 1,
        "dataPrecision": null,
        "dataScale": null,
        "nullable": "Y"
      }
    },
    "campusId": {
      "type": "Number",
      "required": true,
      "length": null,
      "precision": 10,
      "scale": 0,
      "mysql": {
        "columnName": "campus_id",
        "dataType": "int",
        "dataLength": null,
        "dataPrecision": 10,
        "dataScale": 0,
        "nullable": "N"
      }
    }
  },
  "validations": [],
  "relations": {},
  "acls": [],
  "methods": {}
}
