{
  "name": "ScoraServicePrivileges",
  "options": {
    "idInjection": false,
    "mysql": {
      "schema": "devScora",
      "table": "SCORA_SERVICE_PRIVILEGES"
    },
    "relations": {
      "privilegeServiceIbfk1rel": {
        "model": "Privileges",
        "type": "belongsTo",
        "foreignKey": "privilegeId"
      },
      "privilegeServiceIbfk2rel": {
        "model": "Services",
        "type": "belongsTo",
        "foreignKey": "serviceId"
      }
    }
  },
  "properties": {
    "servicePrivilegeId": {
      "type": "Number",
      "id": 1,
      "required": true,
      "length": null,
      "precision": 10,
      "scale": 0,
      "mysql": {
        "columnName": "service_privilege_id",
        "dataType": "int",
        "dataLength": null,
        "dataPrecision": 10,
        "dataScale": 0,
        "nullable": "N"
      }
    },
    "serviceId": {
      "type": "Number",
      "required": false,
      "length": null,
      "precision": 10,
      "scale": 0,
      "mysql": {
        "columnName": "service_id",
        "dataType": "int",
        "dataLength": null,
        "dataPrecision": 10,
        "dataScale": 0,
        "nullable": "Y"
      }
    },
    "description": {
      "type": "String",
      "required": false,
      "length": 100,
      "precision": null,
      "scale": null,
      "mysql": {
        "columnName": "description",
        "dataType": "varchar",
        "dataLength": 100,
        "dataPrecision": null,
        "dataScale": null,
        "nullable": "Y"
      }
    },
    "accessLevel": {
      "type": "Number",
      "required": false,
      "length": null,
      "precision": 10,
      "scale": 0,
      "mysql": {
        "columnName": "access_level",
        "dataType": "int",
        "dataLength": null,
        "dataPrecision": 10,
        "dataScale": 0,
        "nullable": "Y"
      }
    }
  },
  "validations": [],
  "relations": {},
  "acls": [],
  "methods": {}
}
