{
  "name": "UserLoginAttributes",
  "options": {
    "idInjection": false,
    "mysql": {
      "schema": "devScora",
      "table": "USER_LOGIN_ATTRIBUTES"
    },
    "relations": {
      "userLoginAttributesIbfk1rel": {
        "model": "ScoraxchangeUser",
        "type": "belongsTo",
        "foreignKey": "userId"
      },
      "userLoginAttributesIbfk2rel": {
        "model": "LookupValue",
        "type": "belongsTo",
        "foreignKey": "loginType"
      }
    }
  },
  "properties": {
    "userLoginAttrId": {
      "type": "Number",
      "id": 1,
      "required": true,
      "length": null,
      "precision": 10,
      "scale": 0,
      "mysql": {
        "columnName": "user_login_attr_id",
        "dataType": "int",
        "dataLength": null,
        "dataPrecision": 10,
        "dataScale": 0,
        "nullable": "N"
      }
    },
    "userId": {
      "type": "Number",
      "required": true,
      "length": null,
      "precision": 10,
      "scale": 0,
      "mysql": {
        "columnName": "user_id",
        "dataType": "int",
        "dataLength": null,
        "dataPrecision": 10,
        "dataScale": 0,
        "nullable": "N"
      }
    },
    "loginType": {
      "type": "Number",
      "required": true,
      "length": null,
      "precision": 10,
      "scale": 0,
      "mysql": {
        "columnName": "login_type",
        "dataType": "int",
        "dataLength": null,
        "dataPrecision": 10,
        "dataScale": 0,
        "nullable": "N"
      }
    },
    "loginAttrKey": {
      "type": "String",
      "required": true,
      "length": 50,
      "precision": null,
      "scale": null,
      "mysql": {
        "columnName": "login_attr_key",
        "dataType": "varchar",
        "dataLength": 50,
        "dataPrecision": null,
        "dataScale": null,
        "nullable": "N"
      }
    },
    "loginAttrValue": {
      "type": "String",
      "required": true,
      "length": 50,
      "precision": null,
      "scale": null,
      "mysql": {
        "columnName": "login_attr_value",
        "dataType": "varchar",
        "dataLength": 50,
        "dataPrecision": null,
        "dataScale": null,
        "nullable": "N"
      }
    }
  },
  "validations": [],
  "relations": {},
  "acls": [],
  "methods": {}
}
