{
  "db": {
    "name": "db",
    "connector": "memory"
  },
  "ScoraXChangeDB": {
    "host": "139.162.253.126",
    "port": 3306,
    "url": "",
    "database": "devScora",
    "password": "devRead123",
    "name": "ScoraXChangeDB",
    "user": "devRead",
    "connector": "mysql"
     },
  "emailDs": {
    "name": "emailDs",
    "connector": "mail",
    "transports": [
      {
        "type": "smtp",
        "host": "smtp.gmail.com",
        "secure": true,
        "port": 465,
        "tls": {
          "rejectUnauthorized": false
        },
        "auth": {
          "user": "afzal.iiit@gmail.com",
          "pass": "allah1195"
        }
      }
    ]
  },
  "FileStorage": {
    "name": "FileStorage",
    "connector": "loopback-component-storage",
    "provider": "filesystem",
    "root": "./../../attachments",
    "nameConflict": "makeUnique"
  }
}
